<?xml version="1.0" ?>
<!DOCTYPE svg PUBLIC '-//W3C//DTD SVG 1.1//EN' 'http://www.w3.org/Graphics/SVG/1.1/DTD/svg11.dtd'>
<svg height="35" style="fill-rule:evenodd;clip-rule:evenodd;stroke-linejoin:round;stroke-miterlimit:2;" version="1.1" viewBox="0 0 32 32" width="35" xml:space="preserve" xmlns="http://www.w3.org/2000/svg" xmlns:serif="http://www.serif.com/" xmlns:xlink="http://www.w3.org/1999/xlink">
    <path fill="#ADD8E6" d="M12.332,12.121l2.241,-6.899l0,-0c0.201,-0.618 0.777,-1.037 1.427,-1.037c0.65,0 1.226,0.419 1.427,1.037l2.241,6.899l7.254,-0c0.65,-0 1.226,0.418 1.427,1.036c0.201,0.618 -0.019,1.295 -0.545,1.677l-5.869,4.264l2.242,6.899c0.201,0.618 -0.019,1.295 -0.545,1.677c-0.526,0.382 -1.238,0.382 -1.763,0l-5.869,-4.264l-5.869,4.264c-0.525,0.382 -1.237,0.382 -1.763,0c-0.526,-0.382 -0.746,-1.059 -0.545,-1.677l2.242,-6.899l-5.869,-4.264c-0.526,-0.382 -0.746,-1.059 -0.545,-1.677c0.201,-0.618 0.777,-1.036 1.427,-1.036l7.254,-0Z"/>
</svg>